{
  "project_info": {
    "project_number": "973989754647",
    "project_id": "firebase-onefam"
  },
  "client": [
    {
      "client_info": {
        "mobilesdk_app_id": "1:973989754647:android:ae04192d75d5dc89",
        "android_client_info": {
          "package_name": "com.onefam"
        }
      },
      "oauth_client": [],
      "api_key": [
        {
          "current_key": "AIzaSyDkxhynoHXqHbgj-Hoc9ls7tErE7zNzji0"
        }
      ],
      "services": {
        "analytics_service": {
          "status": 2,
          "analytics_property": {
            "tracking_id": "UA-96314887-1"
          }
        },
        "appinvite_service": {
          "status": 1,
          "other_platform_oauth_client": []
        },
        "ads_service": {
          "status": 1
        }
      }
    }
  ],
  "configuration_version": "1"
}